…
``` r
observation_missing_summary
```

    ## # A tibble: 101 × 3
    ##     case n_miss pct_miss
    ##    <int>  <int>    <dbl>
    ##  1    88      5     45.5
    ##  2     1      0      0  
    ##  3     2      0      0  
    ##  4     3      0      0  
    ##  5     4      0      0  
    ##  6     5      0      0  
    ##  7     6      0      0  
    ##  8     7      0      0  
    ##  9     8      0      0  
    ## 10     9      0      0  
    ## # ℹ 91 more rows
…
``` r
# What is the number and percentage of missing values grouped by each observation?
miss_case_summary(predictor_vars)
```

    ## # A tibble: 101 × 3
    ##     case n_miss pct_miss
    ##    <int>  <int>    <dbl>
    ##  1    88      5     45.5
    ##  2     1      0      0  
    ##  3     2      0      0  
    ##  4     3      0      0  
    ##  5     4      0      0  
    ##  6     5      0      0  
    ##  7     6      0      0  
    ##  8     7      0      0  
    ##  9     8      0      0  
    ## 10     9      0      0  
    ## # ℹ 91 more rows
…
``` r
# What is the number and percentage of missing values grouped by each observation?
miss_case_summary(imputed_data_complete)
```

    ## # A tibble: 101 × 3
    ##     case n_miss pct_miss
    ##    <int>  <int>    <dbl>
    ##  1     1      0        0
    ##  2     2      0        0
    ##  3     3      0        0
    ##  4     4      0        0
    ##  5     5      0        0
    ##  6     6      0        0
    ##  7     7      0        0
    ##  8     8      0        0
    ##  9     9      0        0
    ## 10    10      0        0
    ## # ℹ 91 more rows
…
